…
fake_data
#> $setup
#> # A tibble: 3 × 7
#>   GCA   `Content Area` `Grade Group` `Number of Tables per Room` `Level Options`
#>   <chr> <chr>          <chr>         <chr>                       <chr>          
#> 1 M1    Math           1             5                           Level1, Level2…
#> 2 M2    Math           2             5                           Level1, Level2…
#> 3 M3    Math           3             5                           Level1, Level2…
#> # ℹ 2 more variables: SD <dbl>, EC <dbl>
#> 
#> $panelist
#> # A tibble: 75 × 3
#>   GCA   Panelist Table
#>   <chr> <chr>    <chr>
#> 1 M1    M1.T1.1  T1   
#> 2 M1    M1.T1.2  T1   
#> 3 M1    M1.T1.3  T1   
#> 4 M1    M1.T1.4  T1   
#> 5 M1    M1.T1.5  T1   
#> # ℹ 70 more rows
#> 
#> $rating
#> # A tibble: 2,250 × 8
#>   GCA   Subject Grade Round Table Panelist Item_ID ALD   
#>   <chr> <chr>   <chr> <dbl> <chr> <chr>    <chr>   <chr> 
#> 1 M1    Math    1         1 T1    M1.T1.1  M1_1    Level1
#> 2 M1    Math    1         1 T1    M1.T1.1  M1_2    Level1
#> 3 M1    Math    1         1 T1    M1.T1.1  M1_3    Level1
#> 4 M1    Math    1         1 T1    M1.T1.1  M1_4    Level2
#> 5 M1    Math    1         1 T1    M1.T1.1  M1_5    Level2
#> # ℹ 2,245 more rows
#> 
#> $item_data
#> # A tibble: 90 × 6
#>   GCA   Item_ID Total_points Point Order_of_Difficulty Loc_RP50
#>   <chr> <chr>          <dbl> <dbl>               <int>    <dbl>
#> 1 M1    M1_1               1     1                   1     102.
#> 2 M1    M1_2               1     1                   2     107.
#> 3 M1    M1_3               1     1                   3     110.
#> 4 M1    M1_4               1     1                   4     113.
#> 5 M1    M1_5               1     1                   5     116.
#> # ℹ 85 more rows
#> 
#> $examineedata_data
#> # A tibble: 226 × 9
#>   score...1 freq...2 Grade...3 score...4 freq...5 Grade...6 score...7 freq...8
#>       <int>    <int> <chr>         <int>    <int> <chr>         <int>    <int>
#> 1        86        6 M1              113       10 M2              126        8
#> 2        87        6 M1              114        2 M2              127        7
#> 3        88        2 M1              115        3 M2              128        5
#> 4        89        4 M1              116        4 M2              129        5
#> 5        90        6 M1              117        7 M2              130        6
#> # ℹ 221 more rows
#> # ℹ 1 more variable: Grade...9 <chr>
…
