…
fake_data
#> $setup
#> # A tibble: 3 × 7
#>   GCA   `Content Area` `Grade Group` `Number of Tables per Room` `Level Options`
#>   <chr> <chr>          <chr>         <chr>                       <chr>          
#> 1 M1    Math           1             5                           Level1, Level2…
#> 2 M2    Math           2             5                           Level1, Level2…
#> 3 M3    Math           3             5                           Level1, Level2…
#> # ℹ 2 more variables: SD <dbl>, EC <dbl>
#> 
#> $panelist
#> # A tibble: 75 × 3
#>   GCA   Panelist Table
#>   <chr> <chr>    <chr>
#> 1 M1    M1.T1.1  T1   
#> 2 M1    M1.T1.2  T1   
#> 3 M1    M1.T1.3  T1   
#> 4 M1    M1.T1.4  T1   
#> 5 M1    M1.T1.5  T1   
#> # ℹ 70 more rows
#> 
#> $rating
#> # A tibble: 2,250 × 8
#>   GCA   Subject Grade Round Table Panelist Item_ID ALD   
#>   <chr> <chr>   <chr> <dbl> <chr> <chr>    <chr>   <chr> 
#> 1 M1    Math    1         1 T1    M1.T1.1  M1_1    Level1
#> 2 M1    Math    1         1 T1    M1.T1.1  M1_2    Level1
#> 3 M1    Math    1         1 T1    M1.T1.1  M1_3    Level2
#> 4 M1    Math    1         1 T1    M1.T1.1  M1_4    Level3
#> 5 M1    Math    1         1 T1    M1.T1.1  M1_5    Level2
#> # ℹ 2,245 more rows
#> 
#> $item_data
#> # A tibble: 90 × 6
#>   GCA   Item_ID Total_points Point Order_of_Difficulty Loc_RP50
#>   <chr> <chr>          <dbl> <dbl>               <int>    <dbl>
#> 1 M1    M1_1               1     1                   1     111.
#> 2 M1    M1_2               1     1                   2     134.
#> 3 M1    M1_3               1     1                   3     134.
#> 4 M1    M1_4               1     1                   4     141.
#> 5 M1    M1_5               1     1                   5     152.
#> # ℹ 85 more rows
#> 
#> $examineedata_data
#> # A tibble: 227 × 9
#>   score...1 freq...2 Grade...3 score...4 freq...5 Grade...6 score...7 freq...8
#>       <int>    <int> <chr>         <int>    <int> <chr>         <int>    <int>
#> 1       100        3 M1              111        9 M2              119        6
#> 2       101        3 M1              112        4 M2              120        7
#> 3       102        4 M1              113        8 M2              121        5
#> 4       103        5 M1              114        4 M2              122        8
#> 5       104        3 M1              115        3 M2              123        3
#> # ℹ 222 more rows
#> # ℹ 1 more variable: Grade...9 <chr>
…
